3757.7827	AQPLEDLASFQELSQTPGHTEELANGAADSFTSAPK
3621.7410	LGTTAGQMCSGLPGLSSVDINNFGDSINESEGIPLK
3563.8267	GSIPTDVEVLPTETEIHNEPFLTLWLTQVER
3473.7295	IEIHEQEAILHNFSSTNPTQVNGSVIDEPVR
3360.5654	QFQGTDSGEEPLLPTSESFGGNVFFSAQNAAK
2917.4061	AQPLEDLAGFTELSETSGHTQESLTAGK
2607.3347	KPVGEVHSQFSTGHANSPCTIIIGK
2577.3459	VSFGGHLRPELFDENLPPNTPLK
2383.1922	EQPQLTSTCHIAISNSENLLGK
2345.1659	SEVPEDLAGFIELFQTPSHTK
2208.0163	SGGSGHAVAEPASPEQELDQNK
2097.9683	LTQTSGETTHTHTEPTGDGK
2021.9783	MPCQSLQPEPINTPTHTK
1992.8668	ELFQTPDHTEESTTDDK
1989.9851	SGVDGPHFPLSLSTCLFGR
1987.9793	ELFQTPICTDKPTTHEK
1973.9637	ELFQTPVCTDKPTTHEK
1964.8542	ELFQTPGHTEESMTDDK
1964.8542	ELFQTPGHTEESMTDDK
1924.8480	ELFQTPGPSEESMTDEK
1924.0174	SPQPDPVGTPTIFKPQSK
1895.9709	ASQPDLVDTPTSSKPQPK
1892.8000	MPCESSPPESADTPTSTR
1891.8742	ELFSAPGHTEESMTIDK
1887.8640	IPCDSPQSDPVDTPTSTK
1886.9415	IPCESPPLEVVDTTASTK
1862.9494	TEAEQQITEVFVLAER
1852.8532	DSVAQGTTNVHSSEHAGR
1838.8113	ELFQTPCTDNPTTDEK
1826.9282	ELFQTPGHTEELVAAGK
1806.8756	ELFQTPGTDKPTTDEK
1798.8817	SQPDPVDTPTSSKPQSK
1784.8813	ELFQTPGHTEEAVAAGK
1776.7882	TSGETTQTHTEPTGDSK
1761.8501	VEDAADSATKPENLSSK
1742.8339	CMPAPEEIVEELPASK
1702.8606	ESADGLQGETQLLVSR
1645.7122	TSPEMDIQNPDDGAR
1632.7976	TPVQYSQQQNSPQK
1607.7832	SEETNTEIVECILK
1603.6540	DPAAGHTEESMTDDK
1582.6988	QMLDPANYGTGMER
1502.6791	SPPPESMDTPTSTR
1489.6839	IEPAEELNSNDMK
1458.6707	SPQSDPADTPTNTK
1450.7060	EEAQALEDLTGFK
1444.7165	SPPPELTDTATSTK
1442.7009	SPPPESVDTPTSTK
1439.7012	SPQPDPVDTPASTK
1436.6903	EEAQSLEDLAGFK
1436.6903	EEAQSLEDLAGFK
1425.7081	LTQTSGQSTHTHK
1419.7954	AQSLVISPPAPSPR
1418.6758	LTQTSGETTHTDK
1418.6758	LTQTSGETTHTDK
1410.7045	AMHTPKPSVGEEK
1402.6817	SQHDILQMICSK
1400.6176	FTQTSGETTDADK
1394.7096	AMHTPKPAVGEEK
1389.7372	NINTFVETPVQK
1388.6726	AMDTPKPAVSDEK
1378.6848	ESAQAIEDLAGFK
1368.6980	NIYAFMGTPVQK
1353.6685	VDVEEEFFALR
1352.6991	AMHTPKPAVSGEK
1352.6917	GQNLLQTQDHAK
1351.6223	SSPELEDTATSSK
1349.7099	AVGASFPLYEPAK
1341.6644	QESGSEIHVEVK
1332.7158	DINTFLGTPVQK
1329.7776	DIIIFVGTPVQK
1327.6164	ADTEEEFLAFR
1325.6372	ADVEEEFLAFR
1319.6841	DINTFVGTPVEK
1316.6150	AMDTPKPAGGDEK
1314.7012	QILDPAASVTGSR
1314.6722	AMLTPKPAGGDEK
1311.6579	EIERPFETYK
1292.6151	SVPTTQCLDNSK
1291.6528	ADVEEEFLALR
1291.6528	ADVEEEFLALR
1290.6899	QILDSAASLTGSK
1281.6433	KPNPVEEEPSR
1267.6389	LDQPGNLPGSNR
1248.5161	GHTEESMTNDK
1242.6437	QTPAPAASVTGSR
1239.5925	EDLSGIAEMFK
1239.5092	GEAGNSDSMCLR
1234.6426	AQALEELTGFR
1231.6164	ADVEEESLALR
1221.7024	SLVMHTPPVLK
1212.5742	SGLQTDYATEK
1209.5494	YENESLQNGR
1200.6623	SNTSLPPLPFK
1193.5540	CAPMSDLTDLK
1191.6255	AEALEDLVGFK
1190.6263	LDLTENLTGSK
1190.6263	LDLTENLTGSK
1176.6371	VLNNFISNQK
1175.5725	ADVEGELLACR
1172.5906	QLTQTTHTDK
1162.6102	AQALEDLAGFK
1162.6102	AQALEDLAGFK
1162.6102	AQALEDLAGFK
1159.6317	SGASEANLIVAK
1157.6160	VEPVGDVVSTR
1154.6415	AQPLEDLAGLK
1154.6415	AQPLEDLAGLK
1138.6215	HGDVITIIDR
1134.5425	NAADPISGDFK
1126.6466	LDLLGNLPGSK
1126.6466	LDLLGNLPGSK
1126.5236	TSGETTHTHR
1118.5688	SQPAASTLESK
1116.6146	DIVEELSALK
1110.6153	LDLPGNLPGSK
1098.4585	SSFSSDPDEK
1094.6217	VHVPARPYR
1094.4848	TSDTETEPSK
1089.5422	DVESVQTPSK
1078.6003	VSGNPQVHIK
1074.5425	LDAEDVIGSR
1071.6044	LDLAGTLPGSK
1070.5840	QTPDSGKPLK
1049.5513	ALEDLVDFK
1045.5524	LDPAASVTGSK
1045.5524	LDPAASVTGSK
1033.5234	SLPDTELMK
1029.5211	LQDSVPENK
1024.4880	ENVLQYCR
1002.4738	EPASGDEGIK
989.5336	SSEPVVIMK
978.5077	AFMGTPVQK
978.5077	AFMGTPVQK
967.3850	EDSTADDSK
963.5145	ALEDLAGFK
932.4683	EELSAVER
919.4519	SPQPESFK
917.4323	QNESSQPK
907.4308	NESPFWK
904.4370	VAEESGGQK
903.4782	DSLSKPEK
883.5611	IQLPVVSK
883.4996	QILDPAAR
877.4084	AEDNVCVK
873.4424	TPVASDQR
873.3948	SSQPDPDK
872.4723	EEPLAVSK
870.4931	EEVLPVGK
870.4315	EQPQPSGK
867.4570	SPQPDPVK
860.4658	VLMQNQK
858.4931	EELLAVGK
858.4931	EELLAVGK
858.4931	EELLAVGK
838.3611	ESMTNEK
830.4189	CSASPPLR
829.4890	ATLLQQR
825.4101	DLYTTGR
817.4236	NLMPSAGK
809.4073	MTSLETK
809.3862	AFMESPK
805.3872	GIECDIR
804.4250	SWADVVK
793.4203	ELFQTR
788.4148	SQTEVPK
779.3967	ITEVSCK
779.3967	ITEVSCK
764.3784	DGSVTGTK
759.3883	EEPSAVK
759.3519	VPGDEDK
756.4039	WPQTPK
748.3948	TVSTANR
748.3835	TAPASSSK
746.4043	ESVNLGK
745.4090	ENIELK
745.3362	EPAGEDK
743.3795	TTQTHR
738.4032	LYESVK
736.3624	STEFPR
734.4043	LTQTSGK
731.3682	ENGNVAK
729.3526	EQEPAR
726.4257	RPQTPK
726.4257	RPQTPK
715.3621	EPVGEGK
714.4144	QLQTPK
707.3835	SINAFR
705.4042	GINVFR
703.3621	AAVGEEK
702.3781	SGNLPSK
701.3464	VPGGEDK
698.3831	QPQTPK
690.3392	MWPTR
688.3624	QTPSAGK
684.3497	AMHTPK
677.3100	ETAGDGK
673.3879	LTPSAGK
673.3879	LTPSAGK
673.3151	EPAGDGK
672.3926	LPVESK
669.4042	RPATPK
662.3719	EISSVK
661.2974	CAENPK
660.3926	ELSALK
644.3726	IEINR
639.3096	STEFR
634.2678	ENDEK
620.3250	TPTSSK
619.3198	TWGQK
610.4035	KPIPR
609.3242	YGELK
605.3253	QTQTK
603.3348	ELDVK
603.3096	NPASSK
602.3144	GEAPTK
594.3106	HGPQR
593.2599	EGEMK
590.3144	VTENK
588.3351	TPSVGK
587.3511	TLTPR
587.3399	TPLEK
586.3559	LQTPK
585.2991	AHTEK
578.2304	DSEDI
574.2831	QPSDK
573.3970	LVTIK
569.4021	IPLVK
567.2773	SEGFK
561.3355	VSISR
560.3038	TPSAGK
560.3038	TPSAGK
558.3034	QWPK
548.2674	AQDSK
547.3086	ITEGK
545.3405	GISLR
542.2569	EEHK
540.2486	MDFK
535.2908	VTGMK
529.3205	TRPR
528.3252	QRPK
528.3252	QRPK
528.3252	QRPK
525.2667	NTYK
524.2827	VSYR
519.2708	QCIR
517.3344	ISLGK
517.3093	LQTR
516.3140	QQLK
515.3187	TPLGK
515.2395	QHCK
505.2980	TSLGK
503.3010	KPMK
502.2984	NIQK
>EndOfFile
